3.4 Spatial Intersection (transformative join) | R as GIS for Economists
…
Simple feature collection with 55 features and 2 fields
geometry type:  GEOMETRY
dimension:      XY
bbox:           xmin: 203228.6 ymin: 4470941 xmax: 736832.9 ymax: 4822687
CRS:            EPSG:26915
# A tibble: 55 x 3
   HUC_CODE aw_acres                                                    geometry
   <chr>       <dbl>                                              <GEOMETRY [m]>
 1 07020009  251140. POLYGON ((421317.4 4797758, 421179.2 4797632, 421079.3 479…
 2 07040008  165000  POLYGON ((602943.6 4817205, 602935.1 4817167, 602875.1 481…
 3 07060001  105224. MULTIPOLYGON (((631611.9 4817707, 631609.2 4817706, 631519…
 4 07060002  140192. POLYGON ((593286.7 4817067, 593403.8 4817047, 593583.8 481…
 5 07060003  149000  MULTIPOLYGON (((646504.9 4762382, 646518 4762383, 646554.8…
 6 07060004  162121. POLYGON ((653200.4 4718423, 652967.7 4718504, 652457.7 471…
 7 07060005  142428. POLYGON ((735347.8 4642385, 734779.1 4642296, 734459 46422…
 8 07060006  159628. POLYGON ((692755.3 4694862, 692788.3 4694758, 692788.3 469…
 9 07080101  115574. POLYGON ((667472 4558778, 667391.8 4558691, 667221.7 45585…
10 07080102  160017. POLYGON ((635032.8 4675786, 635247.8 4675644, 635367.8 467…
# … with 45 more rows
